{ "_COMMENT_d109a5df ":"never use spaces nor 'B' when requesting tmpspace or memory. Memory never below 1G !",
  "Sharq.sampleName": "'(overwritten by Sharq.py::jsonModifier, supplied by end user)'",
  "Sharq.inputPattern": "'(overwritten by Sharq.py::jsonModifier, supplied by end user)'",
  "Sharq.STAR.genomeDir":          "'(filled in by the species-specific json file)'",
  "Sharq.addFeatures.prot":        "'(filled in by the species-specific json file)'",
  "Sharq.addFeatures.clus":        "'(filled in by the species-specific json file)'",
  "Sharq.addFeatures.antiLincRNA": "'(filled in by the species-specific json file)'",
  "Sharq.addFeatures.rest":        "'(filled in by the species-specific json file)'",
  "Sharq.processSAM.id2name":      "'(filled in by the species-specific json file)'",
  "Sharq.getFileNames.memory": "1G",
  "Sharq.getFileNames.cpu": "1",
  "Sharq.getFileNames.time": "00:40:00",
  "Sharq.getFileNames.tmpSpace": "10M",
  "Sharq.preProcessFastq.script": "preprocess_fastq.pl",
  "Sharq.preProcessFastq.umiPos": "1-6",
  "Sharq.preProcessFastq.cbcPos": "7-14",
  "Sharq.preProcessFastq.tmpSpace": "10M",
  "Sharq.preProcessFastq.memory": "1G",
  "Sharq.preProcessFastq.cpu": "1",
  "Sharq.preProcessFastq.time": "02:00:00",
  "Sharq.gatherAndSplitCBC.lines": "4000000",
  "Sharq.gatherAndSplitCBC.tmpSpace": "10M",
  "Sharq.gatherAndSplitCBC.memory": "1G",
  "Sharq.gatherAndSplitCBC.cpu": "1",
  "Sharq.gatherAndSplitCBC.time": "00:80:00",
  "Sharq.compTrim.script": "complexityTrimming.py",
  "Sharq.compTrim.compThreshold": "0.35",
  "Sharq.compTrim.qualThreshold": "25",
  "Sharq.compTrim.window": "5",
  "Sharq.compTrim.minLength": "20",
  "Sharq.compTrim.maxLength": "10000",
  "Sharq.compTrim.tmpSpace": "10M",
  "Sharq.compTrim.memory": "1G",
  "Sharq.compTrim.cpu": "1",
  "Sharq.compTrim.time": "4:00:00",
  "Sharq.gatherCompTrim.tmpSpace": "50M",
  "Sharq.gatherCompTrim.memory": "4G",
  "Sharq.gatherCompTrim.cpu": "1",
  "Sharq.gatherCompTrim.time": "00:40:00",
  "Sharq.STAR.script": "STAR.sh",
  "Sharq.STAR.runThreadN": "16",  "_comment_1e7257e2":"otherwise no slot allocation. Note: should be twice Sharq.STAR.cpu",
  "Sharq.STAR.cpu": "8",
  "Sharq.STAR.twopassMode": "Basic",
  "Sharq.STAR.alignEndsType": "Local",
  "Sharq.STAR.alignSoftClipAtReferenceEnds": "yes",
  "Sharq.STAR.outSAMunmapped": "Within",
  "Sharq.STAR.readFilesCommand": "zcat",
  "Sharq.STAR.outStd": "BAM_Unsorted",
  "Sharq.STAR.outSAMtype": "BAM Unsorted",
  "Sharq.STAR.minNovelJunctOverhang": "5",
  "Sharq.STAR.tmpSpace": "100G",
  "Sharq.STAR.memory": "35G",
  "Sharq.STAR.time": "16:00:00",
  "Sharq.addFeatures.script": "add_features.pl",
  "Sharq.addFeatures.tmpSpace": "10G",
  "Sharq.addFeatures.memory": "4G",
  "Sharq.addFeatures.cpu": "1",
  "Sharq.addFeatures.time": "24:00:00", "_comment_be0907a3":"creating the new BAM file takes very long",
  "Sharq.processSAM.script": "tally.pl",
  "Sharq.processSAM.barcodeFile": "celseq2_bc384-v4.csv", "_comment_70e62475":"relative to ../data/",
  "Sharq.processSAM.allowMM": "1",
  "Sharq.processSAM.tmpSpace": "50M",
  "Sharq.processSAM.memory": "4G",
  "Sharq.processSAM.cpu": "1",
  "Sharq.processSAM.time": "24:00:00",
  "Sharq.collectFiles.tmpSpace": "50M",
  "Sharq.collectFiles.memory": "4G",
  "Sharq.collectFiles.cpu": "1",
  "Sharq.collectFiles.time": "00:40:00",
  "Sharq.plateDiagnostics.script": "platediagnostics.R",
  "Sharq.plateDiagnostics.empties": "'(overwritten by Sharq.py::jsonModifier, supplied by end user)'",
  "Sharq.plateDiagnostics.ignore": "none",
  "Sharq.plateDiagnostics.tmpSpace": "50M",
  "Sharq.plateDiagnostics.memory": "4G",
  "Sharq.plateDiagnostics.cpu": "1",
  "Sharq.plateDiagnostics.time": "01:00:00",
  "Sharq.cleanup.outFolder": "/hpc/pmc_holstege/sc-facility/sortseq/processed/",
  "Sharq.cleanup.tmpSpace": "50M",
  "Sharq.cleanup.memory": "4G",
  "Sharq.cleanup.cpu": "1",
  "Sharq.cleanup.time": "00:40:00"
}
